LAB3/S 2/simulation/qsim/lab_3.msim.vcd
$comment
	File created using the following command:
		vcd file lab_3.msim.vcd -direction
$end
$date
	Tue Sep 21 21:49:36 2021
$end
$version
	ModelSim Version 10.4b
$end
$timescale
	1ps
$end

$scope module alu_bcd_vlg_vec_tst $end
$var reg 4 ! A [3:0] $end
$var reg 4 " B [3:0] $end
$var reg 3 # CTRL [2:0] $end
$var reg 4 $ treg_Y [3:0] $end
$var wire 1 % O1 [6] $end
$var wire 1 & O1 [5] $end
$var wire 1 ' O1 [4] $end
$var wire 1 ( O1 [3] $end
$var wire 1 ) O1 [2] $end
$var wire 1 * O1 [1] $end
$var wire 1 + O1 [0] $end
$var wire 1 , O2 [6] $end
$var wire 1 - O2 [5] $end
$var wire 1 . O2 [4] $end
$var wire 1 / O2 [3] $end
$var wire 1 0 O2 [2] $end
$var wire 1 1 O2 [1] $end
$var wire 1 2 O2 [0] $end
$var wire 1 3 Y [3] $end
$var wire 1 4 Y [2] $end
$var wire 1 5 Y [1] $end
$var wire 1 6 Y [0] $end

$scope module i1 $end
$var wire 1 7 gnd $end
$var wire 1 8 vcc $end
$var wire 1 9 unknown $end
$var tri1 1 : devclrn $end
$var tri1 1 ; devpor $end
$var tri1 1 < devoe $end
$var wire 1 = Y[0]~input_o $end
$var wire 1 > Y[1]~input_o $end
$var wire 1 ? Y[2]~input_o $end
$var wire 1 @ Y[3]~input_o $end
$var wire 1 A Y[0]~output_o $end
$var wire 1 B Y[1]~output_o $end
$var wire 1 C Y[2]~output_o $end
$var wire 1 D Y[3]~output_o $end
$var wire 1 E O1[0]~output_o $end
$var wire 1 F O1[1]~output_o $end
$var wire 1 G O1[2]~output_o $end
$var wire 1 H O1[3]~output_o $end
$var wire 1 I O1[4]~output_o $end
$var wire 1 J O1[5]~output_o $end
$var wire 1 K O1[6]~output_o $end
$var wire 1 L O2[0]~output_o $end
$var wire 1 M O2[1]~output_o $end
$var wire 1 N O2[2]~output_o $end
$var wire 1 O O2[3]~output_o $end
$var wire 1 P O2[4]~output_o $end
$var wire 1 Q O2[5]~output_o $end
$var wire 1 R O2[6]~output_o $end
$var wire 1 S CTRL[1]~input_o $end
$var wire 1 T CTRL[2]~input_o $end
$var wire 1 U CTRL[0]~input_o $end
$var wire 1 V Add0~9_combout $end
$var wire 1 W A[0]~input_o $end
$var wire 1 X B[0]~input_o $end
$var wire 1 Y B[1]~input_o $end
$var wire 1 Z Mult0|auto_generated|op_3~0_combout $end
$var wire 1 [ Add0~9clkctrl_outclk $end
$var wire 1 \ Add0~1_combout $end
$var wire 1 ] Add0~2_combout $end
$var wire 1 ^ Add0~4_cout $end
$var wire 1 _ Add0~5_combout $end
$var wire 1 ` Add0~19_combout $end
$var wire 1 a A[1]~input_o $end
$var wire 1 b Mult0|auto_generated|op_3~1 $end
$var wire 1 c Mult0|auto_generated|op_3~2_combout $end
$var wire 1 d Add0~0_combout $end
$var wire 1 e Add0~6 $end
$var wire 1 f Add0~7_combout $end
$var wire 1 g Add0~10_combout $end
$var wire 1 h B[2]~input_o $end
$var wire 1 i Add0~11_combout $end
$var wire 1 j A[2]~input_o $end
$var wire 1 k Add0~8 $end
$var wire 1 l Add0~12_combout $end
$var wire 1 m B[3]~input_o $end
$var wire 1 n Mult0|auto_generated|cs1a[1]~0_combout $end
$var wire 1 o Mult0|auto_generated|op_1~0_combout $end
$var wire 1 p Mult0|auto_generated|op_3~3 $end
$var wire 1 q Mult0|auto_generated|op_3~4_combout $end
$var wire 1 r Add0~14_combout $end
$var wire 1 s Mult0|auto_generated|cs2a[1]~0_combout $end
$var wire 1 t A[3]~input_o $end
$var wire 1 u Mult0|auto_generated|op_1~1 $end
$var wire 1 v Mult0|auto_generated|op_1~2_combout $end
$var wire 1 w Mult0|auto_generated|op_3~5 $end
$var wire 1 x Mult0|auto_generated|op_3~6_combout $end
$var wire 1 y Add0~15_combout $end
$var wire 1 z Add0~13 $end
$var wire 1 { Add0~16_combout $end
$var wire 1 | Add0~18_combout $end
$var wire 1 } Mux9~0_combout $end
$var wire 1 ~ Mux16~0_combout $end
$var wire 1 !! Mux15~0_combout $end
$var wire 1 "! Mux14~0_combout $end
$var wire 1 #! Mux13~0_combout $end
$var wire 1 $! Mux12~0_combout $end
$var wire 1 %! Mux11~0_combout $end
$var wire 1 &! Mux10~0_combout $end
$var wire 1 '! TEMP [7] $end
$var wire 1 (! TEMP [6] $end
$var wire 1 )! TEMP [5] $end
$var wire 1 *! TEMP [4] $end
$var wire 1 +! TEMP [3] $end
$var wire 1 ,! TEMP [2] $end
$var wire 1 -! TEMP [1] $end
$var wire 1 .! TEMP [0] $end
$var wire 1 /! Mult0|auto_generated|le3a [5] $end
$var wire 1 0! Mult0|auto_generated|le3a [4] $end
$var wire 1 1! Mult0|auto_generated|le3a [3] $end
$var wire 1 2! Mult0|auto_generated|le3a [2] $end
$var wire 1 3! Mult0|auto_generated|le3a [1] $end
$var wire 1 4! Mult0|auto_generated|le3a [0] $end
$var wire 1 5! Mult0|auto_generated|le4a [5] $end
$var wire 1 6! Mult0|auto_generated|le4a [4] $end
$var wire 1 7! Mult0|auto_generated|le4a [3] $end
$var wire 1 8! Mult0|auto_generated|le4a [2] $end
$var wire 1 9! Mult0|auto_generated|le4a [1] $end
$var wire 1 :! Mult0|auto_generated|le4a [0] $end
$upscope $end
$upscope $end
$enddefinitions $end
#0
$dumpvars
b0 !
b0 "
b10 #
bz $
0+
1*
1)
1(
1'
1&
1%
02
11
10
1/
1.
1-
1,
06
05
04
03
07
18
x9
1:
1;
1<
0=
0>
0?
0@
0A
0B
0C
0D
0E
1F
1G
1H
1I
1J
1K
0L
1M
1N
1O
1P
1Q
1R
1S
0T
0U
1V
0W
0X
0Y
0Z
1[
1\
1]
0^
0_
0`
0a
0b
0c
1d
1e
0f
0g
0h
1i
0j
0k
0l
0m
0n
0o
1p
0q
0r
0s
0t
0u
0v
0w
0x
1y
1z
0{
0|
1}
0~
0!!
0"!
0#!
0$!
0%!
0&!
0.!
0-!
0,!
0+!
z*!
z)!
z(!
z'!
04!
03!
02!
01!
z0!
z/!
0:!
09!
z8!
z7!
z6!
z5!
$end
#10000
b1 !
1W
1_
#20000
b11 !
b1 "
b10 !
1X
0W
1a
13!
0\
0_
1f
1c
1_
1-!
1g
1B
1$!
1!!
15
1~
1L
0M
0P
1>
0.
01
12
#30000
b11 !
1W
0e
0_
14!
1k
0f
1Z
1l
1.!
1`
1A
0$!
1"!
16
0N
1P
1=
1.
00
#40000
b111 !
b11 "
b101 !
b10 "
b100 !
0X
1Y
0W
0a
1j
12!
1\
1s
0d
1b
0Z
1e
1_
0k
1f
0z
0l
1o
0_
0p
0c
0.!
1z
1l
1{
1w
0-!
0{
0`
0A
1x
1$!
0"!
06
0g
0B
1N
0P
0=
1+!
0$!
0!!
0.
10
05
0~
0L
1M
1P
0>
1.
11
02
1|
1D
13
1~
1L
1@
12
#50000
b101 !
1W
1:!
03!
1_
1q
1p
1c
1,!
0q
1-!
0,!
1r
1g
1B
1C
1&!
1#!
1"!
15
14
0r
0}
0F
0G
0H
0K
0C
0N
0O
0R
1>
1?
0&!
0#!
0"!
0,
0/
00
0%
0(
0)
0*
04
0~
0L
1N
1O
1R
0?
1,
1/
10
02
#60000
b111 !
b11 "
b110 !
1X
0W
1a
11!
02!
0\
19!
0:!
0_
1k
0f
1v
0o
1_
0x
0w
1q
0z
0l
0q
0+!
1,!
1{
0,!
0|
1r
1C
0D
1%!
14
03
0r
1~
1}
1F
1G
1H
1K
1L
0C
0Q
1?
0@
0%!
1$!
1!!
0-
12
1%
1(
1)
1*
04
0M
0P
1Q
0?
1-
0.
01
#70000
b111 !
1W
1:!
0e
0_
04!
1q
1f
0b
1Z
1,!
0c
1.!
0-!
1r
1`
1A
1C
0$!
1#!
1"!
16
14
0g
0~
0L
0B
0N
0O
1P
1=
1?
1%!
0#!
0!!
1.
0/
00
02
05
1~
1L
1M
1O
0Q
0>
0-
1/
11
12
#80000
b1111 !
b111 "
b1011 !
b101 "
b1001 !
b100 "
b1000 !
0X
0Y
1h
0W
0a
0j
1t
01!
1\
0:!
1d
0Z
0i
09!
1e
1_
0f
1z
1l
0{
0v
0_
0q
0k
0.!
0z
0l
1x
1{
0x
0,!
1z
1l
0{
1+!
0`
0A
0+!
1{
1&!
0%!
1#!
06
0r
1|
1D
0C
0O
1Q
0R
0=
0&!
0#!
0"!
0,
1-
0/
13
04
0|
0D
1N
1O
1R
1@
0?
1,
1/
10
03
0~
0L
0@
02
#90000
b1001 !
1W
1:!
1_
1q
1,!
1r
1C
1&!
1#!
1"!
14
1~
1L
0N
0O
0R
1?
0,
0/
00
12
#100000
b1011 !
b101 "
b1010 !
1X
0W
1a
11!
13!
0\
19!
0:!
0_
1f
1v
1c
1_
1x
0q
0x
1-!
1+!
0,!
0+!
1g
1|
0r
0C
1D
1B
0&!
0#!
0"!
04
13
15
0|
0~
0}
0F
0G
0H
0K
0L
0D
1N
1O
1R
0?
1@
1>
1$!
1!!
1,
1/
10
02
0%
0(
0)
0*
03
1~
1}
1F
1G
1H
1K
1L
0M
0P
0@
0.
01
12
1%
1(
1)
1*
#110000
b1011 !
1W
1:!
0e
0_
14!
1q
1k
0f
1Z
1,!
0z
0l
1.!
0{
1r
1`
1A
1C
0$!
1#!
1"!
16
14
0~
0L
0N
0O
1P
1=
1?
1.
0/
00
02
#120000
b1111 !
b111 "
b1101 !
b110 "
b1100 !
0X
1Y
0W
0a
1j
01!
12!
1\
0s
1n
0d
1b
0Z
09!
1e
1_
0k
1f
1l
0v
1u
0_
19!
0p
0c
0.!
1x
0l
1v
1w
0q
0-!
1+!
0`
0A
0,!
1%!
0#!
0"!
0!!
06
0g
1|
1~
1L
1D
0B
1M
1N
1O
0Q
0=
0%!
1$!
1!!
0-
1/
10
11
12
13
05
0r
0}
0F
0G
0H
0K
0C
0M
0P
1Q
1@
0>
0$!
0!!
1-
0.
01
0%
0(
0)
0*
04
1}
1F
1G
1H
1K
1M
1P
0?
1.
11
1%
1(
1)
1*
#130000
b1101 !
1W
09!
03!
1_
0x
1p
1c
0+!
0w
1q
1-!
1x
1,!
0|
1g
1B
0D
1+!
1$!
1!!
15
03
1r
1C
0M
0P
1>
0@
1%!
0$!
0!!
0.
01
14
1|
1D
1M
1P
0Q
1?
1&!
0%!
1#!
1"!
0-
1.
11
13
0}
0F
0G
0H
0K
0N
0O
1Q
0R
1@
0,
1-
0/
00
0%
0(
0)
0*
#140000
b1111 !
b111 "
b1110 !
1X
0W
1a
02!
0\
19!
0_
1k
0f
0u
1o
1_
0x
1l
0v
1w
0q
0+!
0,!
0|
0D
0&!
1%!
0#!
0"!
03
0r
1}
1F
1G
1H
1K
0C
1N
1O
0Q
1R
0@
0%!
1$!
1!!
1,
0-
1/
10
1%
1(
1)
1*
04
0M
0P
1Q
0?
1-
0.
01
#150000
b1111 !
1W
09!
0e
0_
04!
1x
1f
0b
1Z
1+!
0c
1.!
0-!
1|
1`
1A
1D
1&!
0$!
1#!
1"!
16
13
0g
0~
0}
0F
0G
0H
0K
0L
0B
0N
0O
1P
0R
1=
1@
0&!
0#!
0!!
0,
1.
0/
00
02
0%
0(
0)
0*
05
1~
1}
1F
1G
1H
1K
1L
1M
1O
1R
0>
1,
1/
11
12
1%
1(
1)
1*
#160000
b1111 "
b111 !
b1011 "
b11 !
b1001 "
b1 !
b1000 "
b0 !
0W
0a
0j
0t
0X
0Y
0h
1m
19!
1e
1_
0f
0l
1{
1\
1d
0Z
1i
0y
0x
0k
0_
0.!
1z
1l
0{
0+!
0l
1{
0`
0A
0"!
06
0|
0D
1N
0=
10
03
0~
0L
0@
02
#170000
b1 !
1W
09!
1_
1x
1+!
1|
1D
13
1~
1L
1@
12
#180000
b11 !
b1001 "
b10 !
1X
0W
1a
13!
0\
19!
0_
1f
1c
1_
0x
1-!
0+!
1g
0|
0D
1B
1$!
1!!
03
15
0M
0P
0@
1>
0.
01
#190000
b11 !
1W
09!
0e
0_
14!
1x
1k
0f
1Z
1+!
1l
1.!
1|
1`
1A
1D
1&!
0$!
1#!
1"!
16
13
0~
0}
0F
0G
0H
0K
0L
0N
0O
1P
0R
1=
1@
0,
1.
0/
00
02
0%
0(
0)
0*
#200000
b111 !
b1011 "
b101 !
b1010 "
b100 !
0X
1Y
0W
0a
1j
12!
1\
1s
0d
1b
0Z
19!
1e
1_
0k
1f
0z
0l
1u
0o
0_
0p
0c
0.!
0x
1z
1l
0{
1v
0-!
0+!
1{
0`
0A
1x
0&!
0#!
0"!
0!!
06
0g
0|
0D
0B
1M
1N
1O
1R
0=
1+!
1,
1/
10
11
03
05
1}
1F
1G
1H
1K
0@
0>
1%
1(
1)
1*
1|
1D
13
1~
1L
1@
12
#210000
b101 !
1W
0:!
03!
1_
0w
1q
1p
1c
0x
1,!
0q
1-!
0+!
0,!
1r
1g
1B
1C
1&!
1#!
1"!
15
14
0|
0r
0}
0F
0G
0H
0K
0C
0D
0N
0O
0R
1>
1?
0&!
1$!
0#!
0"!
1!!
0,
0/
00
0%
0(
0)
0*
04
03
1}
1F
1G
1H
1K
0M
1N
1O
0P
1R
0?
0@
1,
0.
1/
10
01
1%
1(
1)
1*
#220000
b111 !
b1011 "
b110 !
1X
0W
1a
11!
02!
0\
09!
1:!
0_
1k
0f
0v
0u
1o
1_
1x
1q
0z
0l
0x
1v
1w
0q
1+!
1,!
0{
0+!
0,!
1|
1r
1C
1D
1&!
0$!
1#!
1"!
0!!
14
13
0|
0r
0}
0F
0G
0H
0K
0C
0D
1M
0N
0O
1P
0R
1?
1@
0&!
1$!
0#!
0"!
1!!
0,
1.
0/
00
11
0%
0(
0)
0*
04
03
1}
1F
1G
1H
1K
0M
1N
1O
0P
1R
0?
0@
1,
0.
1/
10
01
1%
1(
1)
1*
#230000
b111 !
1W
0:!
0e
0_
04!
0w
1q
1f
0b
1Z
1x
1,!
0c
1.!
1+!
0-!
1r
1`
1A
1C
0$!
1#!
1"!
16
14
1|
0g
0~
0L
0B
1D
0N
0O
1P
1=
1?
0#!
1.
0/
00
02
05
13
1~
0}
0F
0G
0H
0K
1L
1O
0>
1@
1/
12
0%
0(
0)
0*
#240000
b1111 !
b1111 "
b1011 !
b1101 "
b1001 !
b1100 "
b1000 !
0X
0Y
1h
0W
0a
0j
1t
01!
1\
1:!
1d
0Z
0i
19!
1e
1_
0f
1z
1l
1{
0v
0_
1w
0q
0k
0.!
0z
0l
0x
0{
0,!
1z
1l
1{
0+!
0`
0A
0{
1$!
0"!
06
0r
0|
0D
0C
1N
0P
0=
0$!
0!!
0.
10
03
04
0~
1}
1F
1G
1H
1K
0L
1M
1P
0@
0?
1.
11
02
1%
1(
1)
1*
#250000
b1001 !
1W
0:!
1_
0w
1q
1x
1,!
1+!
1r
1C
1&!
1#!
1"!
14
1|
1~
1L
1D
0N
0O
0R
1?
0&!
1$!
0#!
0"!
1!!
0,
0/
00
12
13
0}
0F
0G
0H
0K
0M
1N
1O
0P
1R
1@
1,
0.
1/
10
01
0%
0(
0)
0*
#260000
b1011 !
b1101 "
b1010 !
1X
0W
1a
11!
13!
0\
09!
1:!
0_
1f
1v
1c
1_
0x
1w
0q
1-!
0+!
0,!
1g
0|
0r
0C
0D
1B
04
03
15
1}
1F
1G
1H
1K
0?
0@
1>
1%
1(
1)
1*
#270000
b1011 !
1W
0:!
0e
0_
14!
0w
1q
1k
0f
1Z
1x
1,!
0z
0l
1.!
1+!
1{
1r
1`
1A
1C
0$!
1#!
1"!
16
14
1|
0~
0L
1D
0N
0O
1P
1=
1?
1%!
0#!
0!!
1.
0/
00
02
13
1~
0}
0F
0G
0H
0K
1L
1M
1O
0Q
1@
0-
1/
11
12
0%
0(
0)
0*
#280000
b1111 !
b1111 "
b1101 !
b1110 "
b1100 !
0X
1Y
0W
0a
1j
01!
12!
1\
0s
0n
0d
1b
0Z
19!
1e
1_
0k
1f
1l
0v
0_
09!
0p
0c
0.!
0x
0l
1w
0q
0-!
0+!
0`
0A
1x
0,!
1&!
0%!
1#!
06
0g
0|
0D
0B
0O
1Q
0R
0=
1+!
0,
1-
0/
03
05
0r
1}
1F
1G
1H
1K
0C
0@
0>
0&!
0#!
0"!
1%
1(
1)
1*
04
1|
0~
0L
1D
1N
1O
1R
0?
1,
1/
10
02
13
1~
1L
1@
12
#290000
b1101 !
1W
03!
1_
1p
1c
0w
1q
1-!
0x
1,!
1g
1B
0+!
15
1r
0~
0}
0F
0G
0H
0K
0L
1C
1>
1&!
1#!
1"!
02
0%
0(
0)
0*
14
0|
1~
1L
0D
0N
0O
0R
1?
0&!
1%!
0#!
0"!
0,
0/
00
12
03
1}
1F
1G
1H
1K
1N
1O
0Q
1R
0@
1,
0-
1/
10
1%
1(
1)
1*
#300000
b1111 !
b1111 "
b1110 !
1X
0W
1a
02!
0\
0_
1k
0f
0o
1_
1l
0q
0,!
0r
0C
0%!
1$!
1!!
04
0M
0P
1Q
0?
1-
0.
01
#310000
b1111 !
1W
0e
0_
04!
1f
0b
1Z
0c
1.!
0-!
1`
1A
0$!
1"!
16
0g
0B
0N
1P
1=
1&!
1#!
1.
00
05
0~
0L
0O
0R
0>
0,
0/
02
#320000
b111 "
b111 !
b11 "
b11 !
b1 "
b1 !
b0 "
b0 !
0W
0a
0j
0t
0X
0Y
0h
0m
1e
1_
0f
0l
0{
1\
1d
0Z
1i
1y
0k
0_
0.!
1z
1l
1{
0l
0{
0`
0A
0&!
0#!
0"!
0!!
06
1M
1N
1O
1R
0=
1,
1/
10
11
#330000
b1 !
1W
1_
#340000
b11 !
b1 "
b10 !
1X
0W
1a
13!
0\
0_
1f
1c
1_
1-!
1g
1B
1$!
1!!
15
1~
1L
0M
0P
1>
0.
01
12
#350000
b11 !
1W
0e
0_
14!
1k
0f
1Z
1l
1.!
1`
1A
0$!
1"!
16
0N
1P
1=
1.
00
#360000
b111 !
b11 "
b101 !
b10 "
b100 !
0X
1Y
0W
0a
1j
12!
1\
1s
0d
1b
0Z
1e
1_
0k
1f
0z
0l
1o
0_
0p
0c
0.!
1z
1l
1{
1w
0-!
0{
0`
0A
1x
1$!
0"!
06
0g
0B
1N
0P
0=
1+!
0$!
0!!
0.
10
05
0~
0L
1M
1P
0>
1.
11
02
1|
1D
13
1~
1L
1@
12
#370000
b101 !
1W
1:!
03!
1_
1q
1p
1c
1,!
0q
1-!
0,!
1r
1g
1B
1C
1&!
1#!
1"!
15
14
0r
0}
0F
0G
0H
0K
0C
0N
0O
0R
1>
1?
0&!
0#!
0"!
0,
0/
00
0%
0(
0)
0*
04
0~
0L
1N
1O
1R
0?
1,
1/
10
02
#380000
b111 !
b11 "
b110 !
1X
0W
1a
11!
02!
0\
19!
0:!
0_
1k
0f
1v
0o
1_
0x
0w
1q
0z
0l
0q
0+!
1,!
1{
0,!
0|
1r
1C
0D
1%!
14
03
0r
1~
1}
1F
1G
1H
1K
1L
0C
0Q
1?
0@
0%!
1$!
1!!
0-
12
1%
1(
1)
1*
04
0M
0P
1Q
0?
1-
0.
01
#390000
b111 !
1W
1:!
0e
0_
04!
1q
1f
0b
1Z
1,!
0c
1.!
0-!
1r
1`
1A
1C
0$!
1#!
1"!
16
14
0g
0~
0L
0B
0N
0O
1P
1=
1?
1%!
0#!
0!!
1.
0/
00
02
05
1~
1L
1M
1O
0Q
0>
0-
1/
11
12
#400000
b1111 !
b111 "
b1011 !
b101 "
b1001 !
b100 "
b1000 !
0X
0Y
1h
0W
0a
0j
1t
01!
1\
0:!
1d
0Z
0i
09!
1e
1_
0f
1z
1l
0{
0v
0_
0q
0k
0.!
0z
0l
1x
1{
0x
0,!
1z
1l
0{
1+!
0`
0A
0+!
1{
1&!
0%!
1#!
06
0r
1|
1D
0C
0O
1Q
0R
0=
0&!
0#!
0"!
0,
1-
0/
13
04
0|
0D
1N
1O
1R
1@
0?
1,
1/
10
03
0~
0L
0@
02
#410000
b1001 !
1W
1:!
1_
1q
1,!
1r
1C
1&!
1#!
1"!
14
1~
1L
0N
0O
0R
1?
0,
0/
00
12
#420000
b1011 !
b101 "
b1010 !
1X
0W
1a
11!
13!
0\
19!
0:!
0_
1f
1v
1c
1_
1x
0q
0x
1-!
1+!
0,!
0+!
1g
1|
0r
0C
1D
1B
0&!
0#!
0"!
04
13
15
0|
0~
0}
0F
0G
0H
0K
0L
0D
1N
1O
1R
0?
1@
1>
1$!
1!!
1,
1/
10
02
0%
0(
0)
0*
03
1~
1}
1F
1G
1H
1K
1L
0M
0P
0@
0.
01
12
1%
1(
1)
1*
#430000
b1011 !
1W
1:!
0e
0_
14!
1q
1k
0f
1Z
1,!
0z
0l
1.!
0{
1r
1`
1A
1C
0$!
1#!
1"!
16
14
0~
0L
0N
0O
1P
1=
1?
1.
0/
00
02
#440000
b1111 !
b111 "
b1101 !
b110 "
b1100 !
0X
1Y
0W
0a
1j
01!
12!
1\
0s
1n
0d
1b
0Z
09!
1e
1_
0k
1f
1l
0v
1u
0_
19!
0p
0c
0.!
1x
0l
1v
1w
0q
0-!
1+!
0`
0A
0,!
1%!
0#!
0"!
0!!
06
0g
1|
1~
1L
1D
0B
1M
1N
1O
0Q
0=
0%!
1$!
1!!
0-
1/
10
11
12
13
05
0r
0}
0F
0G
0H
0K
0C
0M
0P
1Q
1@
0>
0$!
0!!
1-
0.
01
0%
0(
0)
0*
04
1}
1F
1G
1H
1K
1M
1P
0?
1.
11
1%
1(
1)
1*
#450000
b1101 !
1W
09!
03!
1_
0x
1p
1c
0+!
0w
1q
1-!
1x
1,!
0|
1g
1B
0D
1+!
1$!
1!!
15
03
1r
1C
0M
0P
1>
0@
1%!
0$!
0!!
0.
01
14
1|
1D
1M
1P
0Q
1?
1&!
0%!
1#!
1"!
0-
1.
11
13
0}
0F
0G
0H
0K
0N
0O
1Q
0R
1@
0,
1-
0/
00
0%
0(
0)
0*
#460000
b1111 !
b111 "
b1110 !
1X
0W
1a
02!
0\
19!
0_
1k
0f
0u
1o
1_
0x
1l
0v
1w
0q
0+!
0,!
0|
0D
0&!
1%!
0#!
0"!
03
0r
1}
1F
1G
1H
1K
0C
1N
1O
0Q
1R
0@
0%!
1$!
1!!
1,
0-
1/
10
1%
1(
1)
1*
04
0M
0P
1Q
0?
1-
0.
01
#470000
b1111 !
1W
09!
0e
0_
04!
1x
1f
0b
1Z
1+!
0c
1.!
0-!
1|
1`
1A
1D
1&!
0$!
1#!
1"!
16
13
0g
0~
0}
0F
0G
0H
0K
0L
0B
0N
0O
1P
0R
1=
1@
0&!
0#!
0!!
0,
1.
0/
00
02
0%
0(
0)
0*
05
1~
1}
1F
1G
1H
1K
1L
1M
1O
1R
0>
1,
1/
11
12
1%
1(
1)
1*
#480000
b1111 "
b111 !
b1011 "
b11 !
b1001 "
b1 !
b1000 "
b0 !
0W
0a
0j
0t
0X
0Y
0h
1m
19!
1e
1_
0f
0l
1{
1\
1d
0Z
1i
0y
0x
0k
0_
0.!
1z
1l
0{
0+!
0l
1{
0`
0A
0"!
06
0|
0D
1N
0=
10
03
0~
0L
0@
02
#490000
b1 !
1W
09!
1_
1x
1+!
1|
1D
13
1~
1L
1@
12
#500000
b11 !
b1001 "
b10 !
1X
0W
1a
13!
0\
19!
0_
1f
1c
1_
0x
1-!
0+!
1g
0|
0D
1B
1$!
1!!
03
15
0M
0P
0@
1>
0.
01
#510000
b11 !
1W
09!
0e
0_
14!
1x
1k
0f
1Z
1+!
1l
1.!
1|
1`
1A
1D
1&!
0$!
1#!
1"!
16
13
0~
0}
0F
0G
0H
0K
0L
0N
0O
1P
0R
1=
1@
0,
1.
0/
00
02
0%
0(
0)
0*
#520000
b111 !
b1011 "
b101 !
b1010 "
b100 !
0X
1Y
0W
0a
1j
12!
1\
1s
0d
1b
0Z
19!
1e
1_
0k
1f
0z
0l
1u
0o
0_
0p
0c
0.!
0x
1z
1l
0{
1v
0-!
0+!
1{
0`
0A
1x
0&!
0#!
0"!
0!!
06
0g
0|
0D
0B
1M
1N
1O
1R
0=
1+!
1,
1/
10
11
03
05
1}
1F
1G
1H
1K
0@
0>
1%
1(
1)
1*
1|
1D
13
1~
1L
1@
12
#530000
b101 !
1W
0:!
03!
1_
0w
1q
1p
1c
0x
1,!
0q
1-!
0+!
0,!
1r
1g
1B
1C
1&!
1#!
1"!
15
14
0|
0r
0}
0F
0G
0H
0K
0C
0D
0N
0O
0R
1>
1?
0&!
1$!
0#!
0"!
1!!
0,
0/
00
0%
0(
0)
0*
04
03
1}
1F
1G
1H
1K
0M
1N
1O
0P
1R
0?
0@
1,
0.
1/
10
01
1%
1(
1)
1*
#540000
b111 !
b1011 "
b110 !
1X
0W
1a
11!
02!
0\
09!
1:!
0_
1k
0f
0v
0u
1o
1_
1x
1q
0z
0l
0x
1v
1w
0q
1+!
1,!
0{
0+!
0,!
1|
1r
1C
1D
1&!
0$!
1#!
1"!
0!!
14
13
0|
0r
0}
0F
0G
0H
0K
0C
0D
1M
0N
0O
1P
0R
1?
1@
0&!
1$!
0#!
0"!
1!!
0,
1.
0/
00
11
0%
0(
0)
0*
04
03
1}
1F
1G
1H
1K
0M
1N
1O
0P
1R
0?
0@
1,
0.
1/
10
01
1%
1(
1)
1*
#550000
b111 !
1W
0:!
0e
0_
04!
0w
1q
1f
0b
1Z
1x
1,!
0c
1.!
1+!
0-!
1r
1`
1A
1C
0$!
1#!
1"!
16
14
1|
0g
0~
0L
0B
1D
0N
0O
1P
1=
1?
0#!
1.
0/
00
02
05
13
1~
0}
0F
0G
0H
0K
1L
1O
0>
1@
1/
12
0%
0(
0)
0*
#560000
b1111 !
b1111 "
b1011 !
b1101 "
b1001 !
b1100 "
b1000 !
0X
0Y
1h
0W
0a
0j
1t
01!
1\
1:!
1d
0Z
0i
19!
1e
1_
0f
1z
1l
1{
0v
0_
1w
0q
0k
0.!
0z
0l
0x
0{
0,!
1z
1l
1{
0+!
0`
0A
0{
1$!
0"!
06
0r
0|
0D
0C
1N
0P
0=
0$!
0!!
0.
10
03
04
0~
1}
1F
1G
1H
1K
0L
1M
1P
0@
0?
1.
11
02
1%
1(
1)
1*
#570000
b1001 !
1W
0:!
1_
0w
1q
1x
1,!
1+!
1r
1C
1&!
1#!
1"!
14
1|
1~
1L
1D
0N
0O
0R
1?
0&!
1$!
0#!
0"!
1!!
0,
0/
00
12
13
0}
0F
0G
0H
0K
0M
1N
1O
0P
1R
1@
1,
0.
1/
10
01
0%
0(
0)
0*
#580000
b1011 !
b1101 "
b1010 !
1X
0W
1a
11!
13!
0\
09!
1:!
0_
1f
1v
1c
1_
0x
1w
0q
1-!
0+!
0,!
1g
0|
0r
0C
0D
1B
04
03
15
1}
1F
1G
1H
1K
0?
0@
1>
1%
1(
1)
1*
#590000
b1011 !
1W
0:!
0e
0_
14!
0w
1q
1k
0f
1Z
1x
1,!
0z
0l
1.!
1+!
1{
1r
1`
1A
1C
0$!
1#!
1"!
16
14
1|
0~
0L
1D
0N
0O
1P
1=
1?
1%!
0#!
0!!
1.
0/
00
02
13
1~
0}
0F
0G
0H
0K
1L
1M
1O
0Q
1@
0-
1/
11
12
0%
0(
0)
0*
#600000
b1111 !
b1111 "
b1101 !
b1110 "
b1100 !
0X
1Y
0W
0a
1j
01!
12!
1\
0s
0n
0d
1b
0Z
19!
1e
1_
0k
1f
1l
0v
0_
09!
0p
0c
0.!
0x
0l
1w
0q
0-!
0+!
0`
0A
1x
0,!
1&!
0%!
1#!
06
0g
0|
0D
0B
0O
1Q
0R
0=
1+!
0,
1-
0/
03
05
0r
1}
1F
1G
1H
1K
0C
0@
0>
0&!
0#!
0"!
1%
1(
1)
1*
04
1|
0~
0L
1D
1N
1O
1R
0?
1,
1/
10
02
13
1~
1L
1@
12
#610000
b1101 !
1W
03!
1_
1p
1c
0w
1q
1-!
0x
1,!
1g
1B
0+!
15
1r
0~
0}
0F
0G
0H
0K
0L
1C
1>
1&!
1#!
1"!
02
0%
0(
0)
0*
14
0|
1~
1L
0D
0N
0O
0R
1?
0&!
1%!
0#!
0"!
0,
0/
00
12
03
1}
1F
1G
1H
1K
1N
1O
0Q
1R
0@
1,
0-
1/
10
1%
1(
1)
1*
#620000
b1111 !
b1111 "
b1110 !
1X
0W
1a
02!
0\
0_
1k
0f
0o
1_
1l
0q
0,!
0r
0C
0%!
1$!
1!!
04
0M
0P
1Q
0?
1-
0.
01
#630000
b1111 !
1W
0e
0_
04!
1f
0b
1Z
0c
1.!
0-!
1`
1A
0$!
1"!
16
0g
0B
0N
1P
1=
1&!
1#!
1.
00
05
0~
0L
0O
0R
0>
0,
0/
02
#640000
b111 "
b111 !
b11 "
b11 !
b1 "
b1 !
b0 "
b0 !
0W
0a
0j
0t
0X
0Y
0h
0m
1e
1_
0f
0l
0{
1\
1d
0Z
1i
1y
0k
0_
0.!
1z
1l
1{
0l
0{
0`
0A
0&!
0#!
0"!
0!!
06
1M
1N
1O
1R
0=
1,
1/
10
11
#650000
b1 !
1W
1_
#660000
b11 !
b1 "
b10 !
1X
0W
1a
13!
0\
0_
1f
1c
1_
1-!
1g
1B
1$!
1!!
15
1~
1L
0M
0P
1>
0.
01
12
#670000
b11 !
1W
0e
0_
14!
1k
0f
1Z
1l
1.!
1`
1A
0$!
1"!
16
0N
1P
1=
1.
00
#680000
b111 !
b11 "
b101 !
b10 "
b100 !
0X
1Y
0W
0a
1j
12!
1\
1s
0d
1b
0Z
1e
1_
0k
1f
0z
0l
1o
0_
0p
0c
0.!
1z
1l
1{
1w
0-!
0{
0`
0A
1x
1$!
0"!
06
0g
0B
1N
0P
0=
1+!
0$!
0!!
0.
10
05
0~
0L
1M
1P
0>
1.
11
02
1|
1D
13
1~
1L
1@
12
