LAB1/simulation/qsim/LAB1.msim.vcd
$comment
	File created using the following command:
		vcd file LAB1.msim.vcd -direction
$end
$date
	Wed Aug 25 09:00:10 2021
$end
$version
	ModelSim Version 10.4b
$end
$timescale
	1ps
$end

$scope module pc_vlg_vec_tst $end
$var reg 1 ! clk $end
$var reg 1 " clr $end
$var reg 32 # d [31:0] $end
$var reg 1 $ e $end
$var reg 1 % inc $end
$var reg 32 & treg_output1 [31:0] $end
$var wire 1 ' output1 [31] $end
$var wire 1 ( output1 [30] $end
$var wire 1 ) output1 [29] $end
$var wire 1 * output1 [28] $end
$var wire 1 + output1 [27] $end
$var wire 1 , output1 [26] $end
$var wire 1 - output1 [25] $end
$var wire 1 . output1 [24] $end
$var wire 1 / output1 [23] $end
$var wire 1 0 output1 [22] $end
$var wire 1 1 output1 [21] $end
$var wire 1 2 output1 [20] $end
$var wire 1 3 output1 [19] $end
$var wire 1 4 output1 [18] $end
$var wire 1 5 output1 [17] $end
$var wire 1 6 output1 [16] $end
$var wire 1 7 output1 [15] $end
$var wire 1 8 output1 [14] $end
$var wire 1 9 output1 [13] $end
$var wire 1 : output1 [12] $end
$var wire 1 ; output1 [11] $end
$var wire 1 < output1 [10] $end
$var wire 1 = output1 [9] $end
$var wire 1 > output1 [8] $end
$var wire 1 ? output1 [7] $end
$var wire 1 @ output1 [6] $end
$var wire 1 A output1 [5] $end
$var wire 1 B output1 [4] $end
$var wire 1 C output1 [3] $end
$var wire 1 D output1 [2] $end
$var wire 1 E output1 [1] $end
$var wire 1 F output1 [0] $end

$scope module i1 $end
$var wire 1 G gnd $end
$var wire 1 H vcc $end
$var wire 1 I unknown $end
$var tri1 1 J devclrn $end
$var tri1 1 K devpor $end
$var tri1 1 L devoe $end
$var wire 1 M output1[0]~input_o $end
$var wire 1 N output1[1]~input_o $end
$var wire 1 O output1[2]~input_o $end
$var wire 1 P output1[3]~input_o $end
$var wire 1 Q output1[4]~input_o $end
$var wire 1 R output1[5]~input_o $end
$var wire 1 S output1[6]~input_o $end
$var wire 1 T output1[7]~input_o $end
$var wire 1 U output1[8]~input_o $end
$var wire 1 V output1[9]~input_o $end
$var wire 1 W output1[10]~input_o $end
$var wire 1 X output1[11]~input_o $end
$var wire 1 Y output1[12]~input_o $end
$var wire 1 Z output1[13]~input_o $end
$var wire 1 [ output1[14]~input_o $end
$var wire 1 \ output1[15]~input_o $end
$var wire 1 ] output1[16]~input_o $end
$var wire 1 ^ output1[17]~input_o $end
$var wire 1 _ output1[18]~input_o $end
$var wire 1 ` output1[19]~input_o $end
$var wire 1 a output1[20]~input_o $end
$var wire 1 b output1[21]~input_o $end
$var wire 1 c output1[22]~input_o $end
$var wire 1 d output1[23]~input_o $end
$var wire 1 e output1[24]~input_o $end
$var wire 1 f output1[25]~input_o $end
$var wire 1 g output1[26]~input_o $end
$var wire 1 h output1[27]~input_o $end
$var wire 1 i output1[28]~input_o $end
$var wire 1 j output1[29]~input_o $end
$var wire 1 k output1[30]~input_o $end
$var wire 1 l output1[31]~input_o $end
$var wire 1 m output1[0]~output_o $end
$var wire 1 n output1[1]~output_o $end
$var wire 1 o output1[2]~output_o $end
$var wire 1 p output1[3]~output_o $end
$var wire 1 q output1[4]~output_o $end
$var wire 1 r output1[5]~output_o $end
$var wire 1 s output1[6]~output_o $end
$var wire 1 t output1[7]~output_o $end
$var wire 1 u output1[8]~output_o $end
$var wire 1 v output1[9]~output_o $end
$var wire 1 w output1[10]~output_o $end
$var wire 1 x output1[11]~output_o $end
$var wire 1 y output1[12]~output_o $end
$var wire 1 z output1[13]~output_o $end
$var wire 1 { output1[14]~output_o $end
$var wire 1 | output1[15]~output_o $end
$var wire 1 } output1[16]~output_o $end
$var wire 1 ~ output1[17]~output_o $end
$var wire 1 !! output1[18]~output_o $end
$var wire 1 "! output1[19]~output_o $end
$var wire 1 #! output1[20]~output_o $end
$var wire 1 $! output1[21]~output_o $end
$var wire 1 %! output1[22]~output_o $end
$var wire 1 &! output1[23]~output_o $end
$var wire 1 '! output1[24]~output_o $end
$var wire 1 (! output1[25]~output_o $end
$var wire 1 )! output1[26]~output_o $end
$var wire 1 *! output1[27]~output_o $end
$var wire 1 +! output1[28]~output_o $end
$var wire 1 ,! output1[29]~output_o $end
$var wire 1 -! output1[30]~output_o $end
$var wire 1 .! output1[31]~output_o $end
$var wire 1 /! clk~input_o $end
$var wire 1 0! clk~inputclkctrl_outclk $end
$var wire 1 1! e~input_o $end
$var wire 1 2! d[0]~input_o $end
$var wire 1 3! inc~input_o $end
$var wire 1 4! output1~94_combout $end
$var wire 1 5! clr~input_o $end
$var wire 1 6! clr~inputclkctrl_outclk $end
$var wire 1 7! output1[0]~reg0_q $end
$var wire 1 8! d[1]~input_o $end
$var wire 1 9! output1~95_combout $end
$var wire 1 :! output1[1]~reg0_q $end
$var wire 1 ;! output1[2]~96_combout $end
$var wire 1 <! d[2]~input_o $end
$var wire 1 =! output1~98_combout $end
$var wire 1 >! output1[2]~reg0_q $end
$var wire 1 ?! output1[2]~97 $end
$var wire 1 @! output1[3]~99_combout $end
$var wire 1 A! d[3]~input_o $end
$var wire 1 B! output1~101_combout $end
$var wire 1 C! output1[3]~reg0_q $end
$var wire 1 D! output1[3]~100 $end
$var wire 1 E! output1[4]~102_combout $end
$var wire 1 F! d[4]~input_o $end
$var wire 1 G! output1~104_combout $end
$var wire 1 H! output1[4]~reg0_q $end
$var wire 1 I! output1[4]~103 $end
$var wire 1 J! output1[5]~105_combout $end
$var wire 1 K! d[5]~input_o $end
$var wire 1 L! output1~107_combout $end
$var wire 1 M! output1[5]~reg0_q $end
$var wire 1 N! output1[5]~106 $end
$var wire 1 O! output1[6]~108_combout $end
$var wire 1 P! d[6]~input_o $end
$var wire 1 Q! output1~110_combout $end
$var wire 1 R! output1[6]~reg0_q $end
$var wire 1 S! output1[6]~109 $end
$var wire 1 T! output1[7]~111_combout $end
$var wire 1 U! d[7]~input_o $end
$var wire 1 V! output1~113_combout $end
$var wire 1 W! output1[7]~reg0_q $end
$var wire 1 X! output1[7]~112 $end
$var wire 1 Y! output1[8]~114_combout $end
$var wire 1 Z! d[8]~input_o $end
$var wire 1 [! output1~116_combout $end
$var wire 1 \! output1[8]~reg0_q $end
$var wire 1 ]! output1[8]~115 $end
$var wire 1 ^! output1[9]~117_combout $end
$var wire 1 _! d[9]~input_o $end
$var wire 1 `! output1~119_combout $end
$var wire 1 a! output1[9]~reg0_q $end
$var wire 1 b! output1[9]~118 $end
$var wire 1 c! output1[10]~120_combout $end
$var wire 1 d! d[10]~input_o $end
$var wire 1 e! output1~122_combout $end
$var wire 1 f! output1[10]~reg0_q $end
$var wire 1 g! output1[10]~121 $end
$var wire 1 h! output1[11]~123_combout $end
$var wire 1 i! d[11]~input_o $end
$var wire 1 j! output1~125_combout $end
$var wire 1 k! output1[11]~reg0_q $end
$var wire 1 l! output1[11]~124 $end
$var wire 1 m! output1[12]~126_combout $end
$var wire 1 n! d[12]~input_o $end
$var wire 1 o! output1~128_combout $end
$var wire 1 p! output1[12]~reg0_q $end
$var wire 1 q! output1[12]~127 $end
$var wire 1 r! output1[13]~129_combout $end
$var wire 1 s! d[13]~input_o $end
$var wire 1 t! output1~131_combout $end
$var wire 1 u! output1[13]~reg0_q $end
$var wire 1 v! output1[13]~130 $end
$var wire 1 w! output1[14]~132_combout $end
$var wire 1 x! d[14]~input_o $end
$var wire 1 y! output1~134_combout $end
$var wire 1 z! output1[14]~reg0_q $end
$var wire 1 {! output1[14]~133 $end
$var wire 1 |! output1[15]~135_combout $end
$var wire 1 }! d[15]~input_o $end
$var wire 1 ~! output1~137_combout $end
$var wire 1 !" output1[15]~reg0_q $end
$var wire 1 "" output1[15]~136 $end
$var wire 1 #" output1[16]~138_combout $end
$var wire 1 $" d[16]~input_o $end
$var wire 1 %" output1~140_combout $end
$var wire 1 &" output1[16]~reg0_q $end
$var wire 1 '" output1[16]~139 $end
$var wire 1 (" output1[17]~141_combout $end
$var wire 1 )" d[17]~input_o $end
$var wire 1 *" output1~143_combout $end
$var wire 1 +" output1[17]~reg0_q $end
$var wire 1 ," output1[17]~142 $end
$var wire 1 -" output1[18]~144_combout $end
$var wire 1 ." d[18]~input_o $end
$var wire 1 /" output1~146_combout $end
$var wire 1 0" output1[18]~reg0_q $end
$var wire 1 1" output1[18]~145 $end
$var wire 1 2" output1[19]~147_combout $end
$var wire 1 3" d[19]~input_o $end
$var wire 1 4" output1~149_combout $end
$var wire 1 5" output1[19]~reg0_q $end
$var wire 1 6" output1[19]~148 $end
$var wire 1 7" output1[20]~150_combout $end
$var wire 1 8" d[20]~input_o $end
$var wire 1 9" output1~152_combout $end
$var wire 1 :" output1[20]~reg0_q $end
$var wire 1 ;" output1[20]~151 $end
$var wire 1 <" output1[21]~153_combout $end
$var wire 1 =" d[21]~input_o $end
$var wire 1 >" output1~155_combout $end
$var wire 1 ?" output1[21]~reg0_q $end
$var wire 1 @" output1[21]~154 $end
$var wire 1 A" output1[22]~156_combout $end
$var wire 1 B" d[22]~input_o $end
$var wire 1 C" output1~158_combout $end
$var wire 1 D" output1[22]~reg0_q $end
$var wire 1 E" output1[22]~157 $end
$var wire 1 F" output1[23]~159_combout $end
$var wire 1 G" d[23]~input_o $end
$var wire 1 H" output1~161_combout $end
$var wire 1 I" output1[23]~reg0_q $end
$var wire 1 J" output1[23]~160 $end
$var wire 1 K" output1[24]~162_combout $end
$var wire 1 L" d[24]~input_o $end
$var wire 1 M" output1~164_combout $end
$var wire 1 N" output1[24]~reg0_q $end
$var wire 1 O" output1[24]~163 $end
$var wire 1 P" output1[25]~165_combout $end
$var wire 1 Q" d[25]~input_o $end
$var wire 1 R" output1~167_combout $end
$var wire 1 S" output1[25]~reg0_q $end
$var wire 1 T" output1[25]~166 $end
$var wire 1 U" output1[26]~168_combout $end
$var wire 1 V" d[26]~input_o $end
$var wire 1 W" output1~170_combout $end
$var wire 1 X" output1[26]~reg0_q $end
$var wire 1 Y" output1[26]~169 $end
$var wire 1 Z" output1[27]~171_combout $end
$var wire 1 [" d[27]~input_o $end
$var wire 1 \" output1~173_combout $end
$var wire 1 ]" output1[27]~reg0_q $end
$var wire 1 ^" output1[27]~172 $end
$var wire 1 _" output1[28]~174_combout $end
$var wire 1 `" d[28]~input_o $end
$var wire 1 a" output1~176_combout $end
$var wire 1 b" output1[28]~reg0_q $end
$var wire 1 c" output1[28]~175 $end
$var wire 1 d" output1[29]~177_combout $end
$var wire 1 e" d[29]~input_o $end
$var wire 1 f" output1~179_combout $end
$var wire 1 g" output1[29]~reg0_q $end
$var wire 1 h" output1[29]~178 $end
$var wire 1 i" output1[30]~180_combout $end
$var wire 1 j" d[30]~input_o $end
$var wire 1 k" output1~182_combout $end
$var wire 1 l" output1[30]~reg0_q $end
$var wire 1 m" output1[30]~181 $end
$var wire 1 n" output1[31]~183_combout $end
$var wire 1 o" d[31]~input_o $end
$var wire 1 p" output1~185_combout $end
$var wire 1 q" output1[31]~reg0_q $end
$upscope $end
$upscope $end
$enddefinitions $end
#0
$dumpvars
0!
0"
b0 #
1$
0%
bz &
0F
0E
0D
0C
0B
0A
0@
0?
0>
0=
0<
0;
0:
09
08
07
06
05
04
03
02
01
00
0/
0.
0-
0,
0+
0*
0)
0(
0'
0G
1H
xI
1J
1K
1L
0M
0N
0O
0P
0Q
0R
0S
0T
0U
0V
0W
0X
0Y
0Z
0[
0\
0]
0^
0_
0`
0a
0b
0c
0d
0e
0f
0g
0h
0i
0j
0k
0l
0m
0n
0o
0p
0q
0r
0s
0t
0u
0v
0w
0x
0y
0z
0{
0|
0}
0~
0!!
0"!
0#!
0$!
0%!
0&!
0'!
0(!
0)!
0*!
0+!
0,!
0-!
0.!
0/!
00!
11!
02!
03!
04!
05!
06!
07!
08!
09!
0:!
1;!
0<!
0=!
0>!
0?!
0@!
0A!
0B!
0C!
1D!
0E!
0F!
0G!
0H!
0I!
0J!
0K!
0L!
0M!
1N!
0O!
0P!
0Q!
0R!
0S!
0T!
0U!
0V!
0W!
1X!
0Y!
0Z!
0[!
0\!
0]!
0^!
0_!
0`!
0a!
1b!
0c!
0d!
0e!
0f!
0g!
0h!
0i!
0j!
0k!
1l!
0m!
0n!
0o!
0p!
0q!
0r!
0s!
0t!
0u!
1v!
0w!
0x!
0y!
0z!
0{!
0|!
0}!
0~!
0!"
1""
0#"
0$"
0%"
0&"
0'"
0("
0)"
0*"
0+"
1,"
0-"
0."
0/"
00"
01"
02"
03"
04"
05"
16"
07"
08"
09"
0:"
0;"
0<"
0="
0>"
0?"
1@"
0A"
0B"
0C"
0D"
0E"
0F"
0G"
0H"
0I"
1J"
0K"
0L"
0M"
0N"
0O"
0P"
0Q"
0R"
0S"
1T"
0U"
0V"
0W"
0X"
0Y"
0Z"
0["
0\"
0]"
1^"
0_"
0`"
0a"
0b"
0c"
0d"
0e"
0f"
0g"
1h"
0i"
0j"
0k"
0l"
0m"
0n"
0o"
0p"
0q"
$end
#50000
1!
1/!
10!
#100000
b1 #
0$
1%
0!
12!
01!
13!
0/!
00!
#150000
1!
1/!
10!
1>!
1o
1=!
1?!
1D
0;!
1O
1@!
#200000
b11 #
b10 #
0!
02!
18!
0/!
00!
#250000
1!
1/!
10!
1C!
0>!
0o
1p
1B!
0D!
0=!
0?!
0D
1C
0@!
1;!
0O
1P
1D!
1E!
1@!
0E!
#300000
1$
0%
b11 #
0!
11!
03!
12!
0/!
00!
0B!
19!
14!
#350000
1!
1/!
10!
0C!
1:!
17!
1m
1n
0p
1F
1E
0C
0@!
1M
1N
0P
#400000
1"
b111 #
b101 #
0$
b100 #
0!
15!
02!
08!
1<!
01!
0/!
16!
00!
07!
0:!
0n
0m
0E
0F
04!
09!
0N
0M
#450000
1!
1/!
10!
#500000
0"
b101 #
0!
05!
12!
0/!
06!
00!
#550000
1!
1/!
10!
#600000
1%
b111 #
b110 #
0!
13!
02!
18!
0/!
00!
#650000
1!
1/!
10!
1>!
1o
1=!
1?!
1D
0;!
1O
1@!
#700000
0%
b111 #
0!
03!
12!
0/!
00!
#750000
1!
1/!
10!
#800000
b1111 #
b1011 #
1$
1"
b1001 #
1%
b1000 #
0!
02!
08!
0<!
1A!
11!
15!
13!
0/!
16!
00!
0=!
1B!
0>!
0o
0?!
0D
1;!
0O
0@!
#850000
1!
1/!
10!
#900000
0$
0"
0%
b1001 #
0!
01!
05!
03!
12!
0/!
06!
00!
0B!
#950000
1!
1/!
10!
