LAB3/S 1/simulation/qsim/LAB3.msim.vcd
$comment
	File created using the following command:
		vcd file LAB3.msim.vcd -direction
$end
$date
	Wed Sep 22 11:23:34 2021
$end
$version
	ModelSim Version 10.4b
$end
$timescale
	1ps
$end

$scope module FINAL_vlg_vec_tst $end
$var reg 4 ! IN1 [3:0] $end
$var reg 4 " IN2 [3:0] $end
$var reg 3 # SEL [2:0] $end
$var wire 1 $ OUT1 [6] $end
$var wire 1 % OUT1 [5] $end
$var wire 1 & OUT1 [4] $end
$var wire 1 ' OUT1 [3] $end
$var wire 1 ( OUT1 [2] $end
$var wire 1 ) OUT1 [1] $end
$var wire 1 * OUT1 [0] $end
$var wire 1 + OUT2 [6] $end
$var wire 1 , OUT2 [5] $end
$var wire 1 - OUT2 [4] $end
$var wire 1 . OUT2 [3] $end
$var wire 1 / OUT2 [2] $end
$var wire 1 0 OUT2 [1] $end
$var wire 1 1 OUT2 [0] $end
$var wire 1 2 OUT3 [6] $end
$var wire 1 3 OUT3 [5] $end
$var wire 1 4 OUT3 [4] $end
$var wire 1 5 OUT3 [3] $end
$var wire 1 6 OUT3 [2] $end
$var wire 1 7 OUT3 [1] $end
$var wire 1 8 OUT3 [0] $end
$var wire 1 9 OUT4 [6] $end
$var wire 1 : OUT4 [5] $end
$var wire 1 ; OUT4 [4] $end
$var wire 1 < OUT4 [3] $end
$var wire 1 = OUT4 [2] $end
$var wire 1 > OUT4 [1] $end
$var wire 1 ? OUT4 [0] $end

$scope module i1 $end
$var wire 1 @ gnd $end
$var wire 1 A vcc $end
$var wire 1 B unknown $end
$var tri1 1 C devclrn $end
$var tri1 1 D devpor $end
$var tri1 1 E devoe $end
$var wire 1 F OUT1[0]~output_o $end
$var wire 1 G OUT1[1]~output_o $end
$var wire 1 H OUT1[2]~output_o $end
$var wire 1 I OUT1[3]~output_o $end
$var wire 1 J OUT1[4]~output_o $end
$var wire 1 K OUT1[5]~output_o $end
$var wire 1 L OUT1[6]~output_o $end
$var wire 1 M OUT2[0]~output_o $end
$var wire 1 N OUT2[1]~output_o $end
$var wire 1 O OUT2[2]~output_o $end
$var wire 1 P OUT2[3]~output_o $end
$var wire 1 Q OUT2[4]~output_o $end
$var wire 1 R OUT2[5]~output_o $end
$var wire 1 S OUT2[6]~output_o $end
$var wire 1 T OUT3[0]~output_o $end
$var wire 1 U OUT3[1]~output_o $end
$var wire 1 V OUT3[2]~output_o $end
$var wire 1 W OUT3[3]~output_o $end
$var wire 1 X OUT3[4]~output_o $end
$var wire 1 Y OUT3[5]~output_o $end
$var wire 1 Z OUT3[6]~output_o $end
$var wire 1 [ OUT4[0]~output_o $end
$var wire 1 \ OUT4[1]~output_o $end
$var wire 1 ] OUT4[2]~output_o $end
$var wire 1 ^ OUT4[3]~output_o $end
$var wire 1 _ OUT4[4]~output_o $end
$var wire 1 ` OUT4[5]~output_o $end
$var wire 1 a OUT4[6]~output_o $end
$var wire 1 b IN1[3]~input_o $end
$var wire 1 c IN1[2]~input_o $end
$var wire 1 d IN1[1]~input_o $end
$var wire 1 e IN1[0]~input_o $end
$var wire 1 f decoder_1|Mux6~0_combout $end
$var wire 1 g decoder_1|Mux5~0_combout $end
$var wire 1 h decoder_1|Mux4~0_combout $end
$var wire 1 i decoder_1|Mux3~0_combout $end
$var wire 1 j decoder_1|Mux2~0_combout $end
$var wire 1 k decoder_1|Mux1~0_combout $end
$var wire 1 l decoder_1|Mux0~0_combout $end
$var wire 1 m IN2[2]~input_o $end
$var wire 1 n IN2[1]~input_o $end
$var wire 1 o IN2[3]~input_o $end
$var wire 1 p IN2[0]~input_o $end
$var wire 1 q decoder_2|Mux6~0_combout $end
$var wire 1 r decoder_2|Mux5~0_combout $end
$var wire 1 s decoder_2|Mux4~0_combout $end
$var wire 1 t decoder_2|Mux3~0_combout $end
$var wire 1 u decoder_2|Mux2~0_combout $end
$var wire 1 v decoder_2|Mux1~0_combout $end
$var wire 1 w decoder_2|Mux0~0_combout $end
$var wire 1 x SEL[0]~input_o $end
$var wire 1 y alu_1|Add0~0_combout $end
$var wire 1 z alu_1|Add0~1_combout $end
$var wire 1 { alu_1|Add0~2_combout $end
$var wire 1 | alu_1|Add0~3_combout $end
$var wire 1 } alu_1|Add0~5_cout $end
$var wire 1 ~ alu_1|Add0~7 $end
$var wire 1 !! alu_1|Add0~9 $end
$var wire 1 "! alu_1|Add0~11 $end
$var wire 1 #! alu_1|Add0~12_combout $end
$var wire 1 $! SEL[1]~input_o $end
$var wire 1 %! SEL[2]~input_o $end
$var wire 1 &! alu_1|Mux3~0_combout $end
$var wire 1 '! alu_1|Mult0|auto_generated|cs2a[1]~0_combout $end
$var wire 1 (! alu_1|Mult0|auto_generated|cs1a[1]~0_combout $end
$var wire 1 )! alu_1|Mult0|auto_generated|op_1~1 $end
$var wire 1 *! alu_1|Mult0|auto_generated|op_1~2_combout $end
$var wire 1 +! alu_1|Mult0|auto_generated|op_1~0_combout $end
$var wire 1 ,! alu_1|Mult0|auto_generated|op_3~1 $end
$var wire 1 -! alu_1|Mult0|auto_generated|op_3~3 $end
$var wire 1 .! alu_1|Mult0|auto_generated|op_3~5 $end
$var wire 1 /! alu_1|Mult0|auto_generated|op_3~6_combout $end
$var wire 1 0! alu_1|Mux3~1_combout $end
$var wire 1 1! alu_1|Mux0~1_combout $end
$var wire 1 2! alu_1|Mux0~0_combout $end
$var wire 1 3! alu_1|Y~0_combout $end
$var wire 1 4! alu_1|Mux0~2_combout $end
$var wire 1 5! alu_1|Y~2_combout $end
$var wire 1 6! alu_1|Mux2~0_combout $end
$var wire 1 7! alu_1|Add0~8_combout $end
$var wire 1 8! alu_1|Mux2~1_combout $end
$var wire 1 9! alu_1|Mult0|auto_generated|op_3~2_combout $end
$var wire 1 :! alu_1|Mux2~2_combout $end
$var wire 1 ;! alu_1|Add0~10_combout $end
$var wire 1 <! alu_1|Mult0|auto_generated|op_3~4_combout $end
$var wire 1 =! alu_1|Mux1~1_combout $end
$var wire 1 >! alu_1|Mux1~0_combout $end
$var wire 1 ?! alu_1|Y~1_combout $end
$var wire 1 @! alu_1|Mux1~2_combout $end
$var wire 1 A! alu_1|Y~3_combout $end
$var wire 1 B! alu_1|Add0~6_combout $end
$var wire 1 C! alu_1|Mux3~2_combout $end
$var wire 1 D! alu_1|Mux3~3_combout $end
$var wire 1 E! alu_1|Mult0|auto_generated|op_3~0_combout $end
$var wire 1 F! alu_1|Mux3~4_combout $end
$var wire 1 G! decoder_3|Mux6~0_combout $end
$var wire 1 H! decoder_3|Mux5~0_combout $end
$var wire 1 I! decoder_3|Mux4~0_combout $end
$var wire 1 J! decoder_3|Mux3~0_combout $end
$var wire 1 K! decoder_3|Mux2~0_combout $end
$var wire 1 L! decoder_3|Mux1~0_combout $end
$var wire 1 M! decoder_3|Mux0~0_combout $end
$var wire 1 N! helper_1|LessThan0~0_combout $end
$var wire 1 O! alu_1|Mult0|auto_generated|le3a [5] $end
$var wire 1 P! alu_1|Mult0|auto_generated|le3a [4] $end
$var wire 1 Q! alu_1|Mult0|auto_generated|le3a [3] $end
$var wire 1 R! alu_1|Mult0|auto_generated|le3a [2] $end
$var wire 1 S! alu_1|Mult0|auto_generated|le3a [1] $end
$var wire 1 T! alu_1|Mult0|auto_generated|le3a [0] $end
$var wire 1 U! alu_1|Mult0|auto_generated|le4a [5] $end
$var wire 1 V! alu_1|Mult0|auto_generated|le4a [4] $end
$var wire 1 W! alu_1|Mult0|auto_generated|le4a [3] $end
$var wire 1 X! alu_1|Mult0|auto_generated|le4a [2] $end
$var wire 1 Y! alu_1|Mult0|auto_generated|le4a [1] $end
$var wire 1 Z! alu_1|Mult0|auto_generated|le4a [0] $end
$upscope $end
$upscope $end
$enddefinitions $end
#0
$dumpvars
b0 !
b0 "
b0 #
0*
1)
1(
1'
1&
1%
1$
01
10
1/
1.
1-
1,
1+
08
17
16
15
14
13
12
0?
1>
1=
1<
1;
1:
19
0@
1A
xB
1C
1D
1E
0F
1G
1H
1I
1J
1K
1L
0M
1N
1O
1P
1Q
1R
1S
0T
1U
1V
1W
1X
1Y
1Z
0[
1\
1]
1^
1_
1`
1a
0b
0c
0d
0e
0f
0g
0h
0i
0j
0k
0l
0m
0n
0o
0p
0q
0r
0s
0t
0u
0v
0w
0x
0y
0z
0{
0|
0}
1~
0!!
1"!
0#!
0$!
0%!
0&!
0'!
0(!
0)!
0*!
0+!
0,!
1-!
0.!
0/!
00!
01!
02!
03!
04!
05!
06!
07!
08!
09!
0:!
0;!
0<!
0=!
0>!
0?!
0@!
0A!
0B!
0C!
0D!
0E!
0F!
0G!
0H!
0I!
0J!
0K!
1L!
0M!
0N!
0T!
0S!
0R!
0Q!
zP!
zO!
0Z!
0Y!
zX!
zW!
zV!
zU!
$end
#10000
b1 !
1e
1C!
1B!
1l
1i
1h
1g
0G
0H
0I
0L
1D!
0$
0'
0(
0)
1F!
1M!
1J!
1I!
1H!
0U
0V
0W
0Z
02
05
06
07
#20000
b11 !
b1 "
b10 !
1p
0e
1d
1S!
1|
1w
1t
1s
1r
0B!
0l
1j
0i
0h
16!
17!
1f
1F
1H
1I
0J
1L
0N
0O
0P
0S
19!
1B!
0D!
18!
0+
0.
0/
00
1$
0&
1'
1(
1*
1:!
1D!
0F!
0M!
1K!
0J!
0I!
1F!
1G!
1T
1V
1W
0X
1Z
0K!
1I!
12
04
15
16
18
0V
1X
14
06
#30000
b11 !
1e
1A!
1T!
0~
0B!
0j
1h
0H
1J
1E!
1!!
07!
0D!
1&
0(
0F!
1;!
08!
1K!
0I!
1=!
0:!
1V
0X
1@!
0K!
0H!
04
16
0G!
0T
1U
1X
1M!
1J!
1I!
14
17
08
1G!
1T
0V
0W
0Z
02
05
06
18
#40000
b111 !
b11 "
b101 !
b10 "
b100 !
0p
1n
0e
0d
1c
0C!
0A!
1R!
0|
0w
1u
0t
0s
1,!
0E!
1'!
1{
1~
1B!
1l
1i
0g
0!!
17!
1>!
0"!
0;!
1q
1M
1G
0I
0L
1O
1P
0Q
1S
1D!
1+!
0B!
0-!
09!
1"!
1;!
18!
1#!
0=!
1+
0-
1.
1/
0$
0'
1)
11
1F!
1.!
0D!
1:!
0#!
1=!
11!
0@!
0M!
0J!
1H!
1/!
0F!
01!
1@!
14!
0U
1W
1Z
1M!
1J!
0H!
04!
1N!
12
15
07
0a
0^
0]
0\
1U
0W
0Z
0N!
0M!
0J!
0I!
02
05
17
0>
0=
0<
09
0L!
0Y
1V
1W
1Z
1a
1^
1]
1\
1>
1=
1<
19
12
15
16
03
#50000
b101 !
1e
1C!
0S!
1Z!
1B!
0l
1k
0i
1I
0K
1L
1D!
1-!
19!
1<!
1$
0%
1'
1F!
0<!
1J!
1I!
1H!
1L!
0G!
0T
1Y
0U
0V
0W
05
06
07
13
08
#60000
b111 !
b11 "
b110 !
1p
0e
1d
0R!
1Q!
1|
0u
1s
0Z!
1Y!
0B!
0h
15!
1!!
07!
1H
0O
1Q
0+!
1*!
1B!
0.!
1<!
0/!
0D!
0"!
0;!
08!
1-
0/
1(
0<!
1D!
0=!
0F!
1#!
0:!
1F!
0@!
1M!
0H!
11!
1G!
1T
1U
0Z
1H!
14!
02
17
18
0G!
0T
0U
0M!
0J!
0H!
07
08
1G!
1T
1U
1W
1Z
12
15
17
18
#70000
b111 !
1e
1A!
0T!
1Z!
0~
0B!
0k
1i
1h
1g
0f
0F
0G
0H
0I
1K
0,!
1E!
1<!
17!
0D!
1%
0'
0(
0)
0*
09!
0F!
18!
1:!
0I!
1V
1N!
16
0G!
0T
0a
0^
0]
0\
0>
0=
0<
09
08
#80000
b1111 !
b111 "
b1011 !
b101 "
b1001 !
b100 "
b1000 !
0p
0n
1m
0e
0d
0c
1b
0C!
0A!
0Q!
0|
1w
1t
0r
06!
05!
0E!
0Z!
0{
1z
0Y!
1~
1B!
0i
0h
0g
07!
1"!
1;!
12!
0#!
1f
1F
1G
1H
1I
1N
0P
0S
1D!
0*!
0B!
08!
0<!
0!!
0"!
0;!
1/!
1#!
1=!
01!
0+
0.
10
1'
1(
1)
1*
1F!
0/!
0D!
0:!
0=!
1"!
1;!
0#!
11!
1@!
04!
1I!
01!
0F!
0N!
0@!
1#!
1=!
14!
0L!
1G!
1T
0Y
1a
1^
1]
1\
0V
04!
0I!
11!
1@!
06
1>
1=
1<
19
03
18
1L!
1Y
1V
1M!
1J!
1I!
14!
16
13
0V
0W
0Z
1N!
0M!
1K!
0J!
0I!
1H!
02
05
06
0U
1V
1W
0X
1Z
0a
0^
0]
0\
0>
0=
0<
09
12
04
15
16
07
#90000
b1001 !
1e
1C!
1Z!
1B!
1h
0H
1D!
1<!
0(
1F!
0K!
1I!
0V
1X
14
06
#100000
b1011 !
b101 "
b1010 !
1p
0e
1d
1S!
1Q!
1|
0w
1v
0t
0Z!
1Y!
0B!
1l
1k
1j
1i
1g
16!
17!
0f
0F
0G
0I
0J
0K
0L
1P
0R
1S
19!
1*!
1B!
0<!
1/!
0D!
18!
1+
0,
1.
0$
0%
0&
0'
0)
0*
1:!
0/!
1D!
0F!
1M!
1J!
0H!
1F!
1U
0W
0Z
0M!
0J!
02
05
17
0L!
0Y
1W
1Z
12
15
03
#110000
b1011 !
1e
1A!
1T!
1Z!
0~
0B!
1E!
1<!
1!!
07!
0D!
0F!
0"!
0;!
08!
1M!
1J!
0#!
0=!
0:!
1L!
1Y
0W
0Z
01!
0@!
0M!
1K!
0J!
0I!
1H!
02
05
13
0U
1V
1W
0X
1Z
04!
0N!
0K!
0H!
12
04
15
16
07
1U
1X
1a
1^
1]
1\
1>
1=
1<
19
14
17
0G!
0T
08
#120000
b1111 !
b111 "
b1101 !
b110 "
b1100 !
0p
1n
0e
0d
1c
0C!
0A!
1R!
0Q!
0|
0s
1,!
0E!
1(!
0'!
1{
0Y!
1~
1B!
0!!
17!
1?!
1;!
1O
1D!
1)!
0*!
0B!
0-!
09!
1Y!
1/!
0;!
18!
1=!
1/
1F!
1*!
0D!
1.!
0<!
1:!
0=!
1@!
1J!
1I!
1H!
0F!
0@!
0U
0V
0W
1K!
0J!
0I!
05
06
07
1G!
1T
1V
1W
0X
04
15
16
18
#130000
b1101 !
1e
1C!
0S!
0Y!
1B!
1D!
1-!
19!
0/!
1F!
0.!
1<!
0K!
1I!
1/!
0V
1X
14
06
#140000
b1111 !
b111 "
b1110 !
1p
0e
1d
0R!
1|
0v
1t
1s
1r
1Y!
0B!
15!
1!!
07!
0q
0M
0N
0O
0P
1R
0)!
1+!
1B!
0/!
0D!
1;!
08!
1,
0.
0/
00
01
0*!
1.!
0<!
1D!
0F!
1=!
0:!
1F!
0I!
0H!
1@!
0G!
0T
1U
1V
1I!
16
17
08
0L!
1G!
1T
0Y
0V
06
03
18
#150000
b10 #
b1111 !
1e
1$!
0C!
1A!
0T!
0Y!
0~
0B!
0>!
06!
10!
0D!
0,!
1E!
1/!
17!
0=!
1:!
09!
11!
0@!
1J!
1H!
1L!
0G!
0T
1Y
0U
0W
0:!
14!
0J!
05
07
13
08
1G!
1T
1W
0H!
15
18
1U
17
#160000
b1111 "
b111 !
b1011 "
b11 !
b1001 "
b1 !
b1000 "
b0 !
0e
0d
0c
0b
0p
0n
0m
1o
1C!
0A!
1Y!
1~
1B!
0l
0k
0j
0i
0h
0g
16!
05!
07!
0?!
1>!
0;!
02!
1#!
0|
0t
0s
0r
0E!
0{
0z
1y
1q
1M
1N
1O
1P
1G
1H
1I
1J
1K
1L
0F!
0/!
0!!
0B!
1"!
1;!
0#!
1$
1%
1&
1'
1(
1)
1.
1/
10
11
0I!
01!
0;!
1#!
1V
04!
16
0G!
0T
08
#170000
b1 !
1e
0Y!
1B!
1l
1i
1h
1g
0G
0H
0I
0L
1/!
0$
0'
0(
0)
11!
14!
1G!
1T
18
#180000
b11 !
b1001 "
b10 !
1p
0e
1d
0C!
1S!
1|
1s
1Y!
0B!
0l
1j
0i
0h
17!
1f
1F
1H
1I
0J
1L
0O
19!
1B!
0/!
0/
1$
0&
1'
1(
1*
1:!
01!
1N!
04!
0G!
0T
0a
0^
0]
0\
0N!
1K!
1H!
0>
0=
0<
09
08
1G!
1T
0U
0X
1a
1^
1]
1\
1>
1=
1<
19
04
07
18
#190000
b11 !
1e
1A!
1T!
0Y!
0~
0B!
0j
1h
0H
1J
1E!
1/!
1!!
07!
1&
0(
1F!
11!
1;!
0K!
1I!
14!
0V
1X
1N!
1M!
1J!
14
06
0G!
0T
0W
0Z
0a
0^
0]
0\
0>
0=
0<
09
02
05
08
#200000
b111 !
b1011 "
b101 !
b1010 "
b100 !
0p
1n
0e
0d
1c
1C!
0A!
1R!
0|
1w
1v
1u
1t
1r
06!
1,!
0E!
1'!
1{
1Y!
1~
1B!
1l
1i
0g
0!!
17!
0"!
0;!
0q
0M
1G
0I
0L
0N
0P
0Q
0R
0S
0F!
1)!
0+!
0B!
0-!
09!
0/!
1"!
1;!
0#!
0+
0,
0-
0.
00
0$
0'
1)
01
0M!
0J!
0I!
0H!
1*!
0:!
01!
1#!
1U
1V
1W
1Z
1/!
0N!
04!
12
15
16
17
1G!
1T
1a
1^
1]
1\
11!
1>
1=
1<
19
18
0G!
0T
14!
08
1G!
1T
18
#210000
b101 !
1e
0S!
0Z!
1B!
0l
1k
0i
1I
0K
1L
1-!
19!
0.!
1<!
1$
0%
1'
0<!
1:!
0/!
1=!
0=!
1N!
01!
1@!
0G!
0T
0a
0^
0]
0\
0@!
04!
1M!
1J!
1I!
0>
0=
0<
09
08
1G!
1T
0V
0W
0Z
0N!
0M!
1K!
0J!
0I!
1H!
02
05
06
18
0U
1V
1W
0X
1Z
1a
1^
1]
1\
1>
1=
1<
19
12
04
15
16
07
#220000
b111 !
b1011 "
b110 !
1p
0e
1d
0C!
0R!
1Q!
1|
1Z!
0Y!
0B!
0h
15!
1!!
07!
1H
0)!
1+!
0*!
1B!
1<!
1/!
0"!
0;!
1(
1*!
1.!
0<!
0/!
1=!
11!
0#!
0=!
01!
1@!
14!
0@!
04!
1N!
1M!
0K!
1J!
1I!
0H!
1U
0V
0W
1X
0Z
0a
0^
0]
0\
0N!
0M!
1K!
0J!
0I!
1H!
0>
0=
0<
09
02
14
05
06
17
0U
1V
1W
0X
1Z
1a
1^
1]
1\
1>
1=
1<
19
12
04
15
16
07
#230000
b111 !
1e
1A!
0T!
0Z!
0~
0B!
0k
1i
1h
1g
0f
0F
0G
0H
0I
1K
0,!
1E!
0.!
1<!
17!
1%
0'
0(
0)
0*
09!
1F!
1/!
1=!
0:!
0K!
1I!
11!
1@!
0V
1X
0H!
14!
14
06
0L!
0Y
1U
1N!
1H!
17
03
1L!
1Y
0U
0a
0^
0]
0\
0>
0=
0<
09
07
13
#240000
b1111 !
b1111 "
b1011 !
b1101 "
b1001 !
b1100 "
b1000 !
0p
0n
1m
0e
0d
0c
1b
1C!
0A!
0Q!
0|
16!
05!
0E!
1Z!
0{
0>!
1z
1Y!
1~
1B!
0i
0h
0g
07!
1"!
1;!
13!
1#!
1f
1F
1G
1H
1I
0F!
0*!
0B!
1.!
0<!
0!!
0"!
0;!
0/!
0#!
1'
1(
1)
1*
1K!
0I!
0=!
1"!
1;!
1#!
01!
1V
0X
0@!
0#!
04!
04
16
0N!
0K!
0H!
0G!
0T
1U
1X
1a
1^
1]
1\
1>
1=
1<
19
14
17
08
#250000
b1001 !
1e
0Z!
1B!
1h
0H
0.!
1<!
0(
1/!
1=!
11!
1@!
14!
1M!
1J!
1I!
1G!
1T
0V
0W
0Z
1N!
0M!
1K!
0J!
0I!
1H!
02
05
06
18
0U
1V
1W
0X
1Z
0a
0^
0]
0\
0>
0=
0<
09
12
04
15
16
07
#260000
b1011 !
b1101 "
b1010 !
1p
0e
1d
0C!
1S!
1Q!
1|
1Z!
0Y!
0B!
1l
1k
1j
1i
1g
17!
0f
0F
0G
0I
0J
0K
0L
19!
1*!
1B!
1.!
0<!
0/!
0$
0%
0&
0'
0)
0*
1:!
0=!
01!
1M!
0K!
1J!
1I!
0H!
0@!
04!
1U
0V
0W
1X
0Z
0N!
0M!
1K!
0J!
0I!
1H!
02
14
05
06
17
0U
1V
1W
0X
1Z
1a
1^
1]
1\
1>
1=
1<
19
12
04
15
16
07
#270000
b1011 !
1e
1A!
1T!
0Z!
0~
0B!
1E!
0.!
1<!
1!!
07!
1F!
1/!
1=!
0"!
0;!
0K!
1I!
11!
1@!
1#!
0V
1X
14!
1J!
14
06
0G!
0T
0W
1N!
0J!
0H!
05
08
0L!
1G!
1T
0Y
1U
1W
0a
0^
0]
0\
0>
0=
0<
09
15
17
03
18
#280000
b1111 !
b1111 "
b1101 !
b1110 "
b1100 !
0p
1n
0e
0d
1c
1C!
0A!
1R!
0Q!
0|
06!
1,!
0E!
0(!
0'!
1{
1Y!
1~
1B!
0!!
17!
1?!
1;!
0F!
0*!
0B!
0-!
09!
0Y!
0/!
0;!
1M!
1J!
1.!
0<!
0:!
01!
1L!
1Y
0W
0Z
1/!
0=!
0M!
1K!
0J!
0I!
1H!
04!
02
05
13
0U
1V
1W
0X
1Z
11!
0@!
0N!
1M!
0K!
1J!
1I!
0H!
12
04
15
16
07
1U
0V
0W
1X
0Z
1a
1^
1]
1\
14!
0M!
0J!
0I!
1>
1=
1<
19
02
14
05
06
17
0G!
0T
1V
1W
1Z
12
15
16
08
1G!
1T
18
#290000
b1101 !
1e
0S!
1B!
1-!
19!
0.!
1<!
1:!
0/!
1=!
1N!
0G!
0T
0a
0^
0]
0\
01!
1@!
0>
0=
0<
09
08
04!
1M!
1J!
1I!
1G!
1T
0V
0W
0Z
0N!
0M!
0J!
0I!
02
05
06
18
0L!
0Y
1V
1W
1Z
1a
1^
1]
1\
1>
1=
1<
19
12
15
16
03
#300000
b11 #
b1 #
b1111 !
b1111 "
b1110 !
1p
0e
1d
1x
0$!
0R!
0B!
15!
1!!
07!
1}
0{
0z
0y
00!
0+!
0:!
1B!
0!!
17!
0#!
0=!
11!
0<!
1M!
1J!
1I!
1D!
1"!
1;!
18!
01!
0@!
14!
1L!
1Y
0V
0W
0Z
1=!
1F!
1#!
1:!
04!
0M!
0J!
0I!
02
05
06
13
1V
1W
1Z
1@!
1I!
1H!
11!
12
15
16
0U
0V
1J!
14!
06
07
0G!
0T
0W
1N!
0J!
0H!
05
08
0L!
1G!
1T
0Y
1U
1W
0a
0^
0]
0\
0>
0=
0<
09
15
17
03
18
#310000
b1111 !
1e
0C!
1A!
0T!
0~
0B!
0D!
0,!
1E!
1!!
07!
0F!
09!
0"!
0;!
08!
1M!
1J!
0:!
0#!
0=!
1L!
1Y
0W
0Z
0M!
1K!
0J!
0I!
1H!
01!
0@!
02
05
13
0U
1V
1W
0X
1Z
04!
0N!
0K!
0H!
12
04
15
16
07
1U
1X
1a
1^
1]
1\
1>
1=
1<
19
14
17
0G!
0T
08
#320000
b111 "
b111 !
b11 "
b11 !
b1 "
b1 !
b0 "
b0 !
0e
0d
0c
0b
0p
0n
0m
0o
1C!
0A!
1~
1B!
0l
0k
0j
0i
0h
0g
16!
05!
0!!
17!
0?!
1>!
1"!
1;!
03!
12!
1#!
1|
0w
0v
0u
0t
0s
0r
0E!
1{
1z
1y
1N
1O
1P
1Q
1R
1S
1G
1H
1I
1J
1K
1L
1D!
18!
1=!
11!
0~
0B!
1$
1%
1&
1'
1(
1)
1+
1,
1-
1.
1/
10
1F!
1:!
1@!
14!
1!!
07!
0D!
1I!
1N!
0"!
0;!
08!
0F!
0L!
1G!
1T
0Y
0a
0^
0]
0\
0V
0#!
0=!
0:!
1M!
1J!
06
0>
0=
0<
09
03
18
1L!
1Y
0W
0Z
01!
0@!
0M!
1K!
0J!
0I!
1H!
02
05
13
0U
1V
1W
0X
1Z
04!
0N!
0K!
0H!
12
04
15
16
07
1U
1X
1a
1^
1]
1\
1>
1=
1<
19
14
17
0G!
0T
08
#330000
b1 !
1e
0C!
1B!
1l
1i
1h
1g
0G
0H
0I
0L
1D!
0$
0'
0(
0)
1F!
1M!
1J!
1I!
1H!
0U
0V
0W
0Z
02
05
06
07
#340000
b11 !
b1 "
b10 !
1p
0e
1d
1C!
1S!
0|
1w
1t
1s
1r
0B!
0l
1j
0i
0h
06!
17!
1f
1F
1H
1I
0J
1L
0N
0O
0P
0S
0D!
19!
1~
1B!
18!
0+
0.
0/
00
1$
0&
1'
1(
1*
0F!
1:!
07!
1D!
0M!
1K!
0J!
0I!
08!
1F!
1G!
1T
1V
1W
0X
1Z
0:!
0K!
1I!
12
04
15
16
18
0V
1X
1M!
1J!
14
06
0G!
0T
0W
0Z
02
05
08
#350000
b11 !
1e
0C!
1A!
1T!
0~
0B!
0j
1h
0H
1J
0D!
1E!
17!
1&
0(
0F!
18!
0M!
0J!
0I!
0H!
1:!
1U
1V
1W
1Z
1K!
1H!
12
15
16
17
1G!
1T
0U
0X
04
07
18
#360000
b111 !
b11 "
b101 !
b10 "
b100 !
0p
1n
0e
0d
1c
1C!
0A!
1R!
1|
0w
1u
0t
0s
16!
1,!
0E!
1'!
0{
1~
1B!
1l
1i
0g
07!
0>!
1;!
1q
1M
1G
0I
0L
1O
1P
0Q
1S
1D!
1+!
0~
0B!
08!
0-!
09!
0!!
1=!
1+
0-
1.
1/
0$
0'
1)
11
1F!
1.!
17!
0D!
0:!
0;!
1@!
0K!
1I!
0H!
1/!
18!
0F!
0=!
0L!
0Y
1U
0V
1X
1:!
1M!
1J!
0@!
14
06
17
03
1L!
1Y
0W
0Z
0M!
1K!
0J!
0I!
1H!
02
05
13
0U
1V
1W
0X
1Z
12
04
15
16
07
#370000
b101 !
1e
0C!
0S!
1Z!
1B!
0l
1k
0i
1I
0K
1L
1D!
1-!
19!
1<!
1$
0%
1'
1F!
0<!
0K!
1I!
0V
1X
14
06
#380000
b111 !
b11 "
b110 !
1p
0e
1d
1C!
0R!
1Q!
0|
0u
1s
0Z!
1Y!
0B!
0h
06!
15!
1!!
07!
1H
0O
1Q
0D!
0+!
1*!
1~
1B!
0.!
1<!
0/!
08!
1;!
1-
0/
1(
0F!
0<!
0!!
17!
1D!
1=!
0:!
0I!
0H!
0;!
18!
1F!
1@!
0G!
0T
1U
1V
0=!
1:!
1I!
16
17
08
0L!
1G!
1T
0Y
0V
0@!
1J!
1H!
06
03
18
1L!
0G!
0T
1Y
0U
0W
0J!
05
07
13
08
1G!
1T
1W
15
18
#390000
b111 !
1e
0C!
1A!
0T!
1Z!
0~
0B!
0k
1i
1h
1g
0f
0F
0G
0H
0I
1K
0D!
0,!
1E!
1<!
1!!
07!
1%
0'
0(
0)
0*
0F!
09!
1;!
08!
1K!
0I!
0:!
1=!
1V
0X
0K!
0H!
1@!
04
16
0G!
0T
1U
1X
1M!
1J!
1I!
14
17
08
1G!
1T
0V
0W
0Z
02
05
06
18
#400000
b1111 !
b111 "
b1011 !
b101 "
b1001 !
b100 "
b1000 !
0p
0n
1m
0e
0d
0c
1b
1C!
0A!
0Q!
1|
1w
1t
0r
16!
05!
0E!
0Z!
1{
1>!
0z
0Y!
1~
1B!
0i
0h
0g
0!!
17!
0;!
02!
1#!
1f
1F
1G
1H
1I
1N
0P
0S
1D!
0*!
0~
0B!
18!
0<!
1"!
1/!
0=!
11!
0+
0.
10
1'
1(
1)
1*
1F!
0/!
1!!
07!
0D!
1:!
0#!
0@!
14!
1H!
01!
1;!
08!
0F!
1N!
0G!
0T
0a
0^
0]
0\
0U
04!
1=!
0:!
0M!
0J!
0I!
0H!
07
0>
0=
0<
09
08
1U
1V
1W
1Z
0N!
1@!
12
15
16
17
1a
1^
1]
1\
1M!
1J!
1I!
1>
1=
1<
19
1G!
1T
0V
0W
0Z
02
05
06
18
#410000
b1001 !
1e
0C!
1Z!
1B!
1h
0H
1D!
1<!
0(
1F!
0M!
0J!
0L!
0Y
1W
1Z
12
15
03
#420000
b1011 !
b101 "
b1010 !
1p
0e
1d
1C!
1S!
1Q!
0|
0w
1v
0t
0Z!
1Y!
0B!
1l
1k
1j
1i
1g
06!
17!
0f
0F
0G
0I
0J
0K
0L
1P
0R
1S
0D!
19!
1*!
1~
1B!
0<!
1/!
18!
1+
0,
1.
0$
0%
0&
0'
0)
0*
0F!
1:!
0/!
07!
1D!
0I!
08!
1F!
1V
0:!
1J!
1I!
1H!
16
1L!
0G!
0T
1Y
0U
0V
0W
0J!
0H!
05
06
07
13
08
0L!
1G!
1T
0Y
1U
1W
15
17
03
18
#430000
b1011 !
1e
0C!
1A!
1T!
1Z!
0~
0B!
0D!
1E!
1<!
17!
0F!
18!
1M!
1J!
1:!
1L!
1Y
0W
0Z
0M!
0J!
0I!
02
05
13
0L!
0Y
1V
1W
1Z
12
15
16
03
#440000
b1111 !
b111 "
b1101 !
b110 "
b1100 !
0p
1n
0e
0d
1c
1C!
0A!
1R!
0Q!
1|
0s
16!
1,!
0E!
1(!
0'!
0{
0Y!
1~
1B!
07!
1?!
0>!
0"!
0;!
1O
1D!
1)!
0*!
0~
0B!
08!
0-!
09!
1Y!
0!!
1/!
1#!
0=!
1/
1F!
1*!
17!
0D!
0:!
1.!
0<!
1"!
1;!
11!
0@!
1M!
1J!
1I!
1H!
18!
0F!
1=!
0#!
14!
1L!
0G!
0T
1Y
0U
0V
0W
0Z
1:!
0M!
0J!
0I!
0H!
1@!
01!
02
05
06
07
13
08
1G!
1T
1U
1V
1W
1Z
1N!
1M!
1J!
1I!
04!
12
15
16
17
18
0V
0W
0Z
0a
0^
0]
0\
0N!
0M!
0J!
0I!
0>
0=
0<
09
02
05
06
0L!
0Y
1V
1W
1Z
1a
1^
1]
1\
1>
1=
1<
19
12
15
16
03
